<?xml version="1.0" encoding="utf-8"?>
<!-- Generator: Adobe Illustrator 24.1.2, SVG Export Plug-In . SVG Version: 6.00 Build 0)  -->
<svg version="1.1" id="Group_2" xmlns="http://www.w3.org/2000/svg" xmlns:xlink="http://www.w3.org/1999/xlink" x="0px" y="0px"
	 viewBox="0 0 1398.9 769" style="enable-background:new 0 0 1398.9 769;" xml:space="preserve">
<style type="text/css">
	.st0{fill:url(#Path_2_1_);}
	.st1{opacity:0.3;fill:url(#Path_3_1_);enable-background:new    ;}
	.st2{opacity:0.14;fill:url(#Path_4_1_);enable-background:new    ;}
	.st3{fill:url(#Path_5_1_);}
	.st4{opacity:0.19;fill:url(#Path_6_1_);enable-background:new    ;}
	.st5{opacity:0.2;fill:#FFFFFF;enable-background:new    ;}
	.st6{opacity:0.12;fill:#FFFFFF;enable-background:new    ;}
	.st7{opacity:0.13;fill:#FFFFFF;enable-background:new    ;}
	.st8{opacity:0.3;fill:url(#Path_7_1_);enable-background:new    ;}
</style>
<linearGradient id="Path_2_1_" gradientUnits="userSpaceOnUse" x1="526.7994" y1="686.703" x2="523.0663" y2="684.188" gradientTransform="matrix(-729.13 0 0 -769 384041.1563 527906.5)">
	<stop  offset="0" style="stop-color:#A52EFF"/>
	<stop  offset="0.5" style="stop-color:#6747F8"/>
	<stop  offset="0.65" style="stop-color:#6049F7"/>
	<stop  offset="0.86" style="stop-color:#4C51F4"/>
	<stop  offset="1" style="stop-color:#3D58F3"/>
</linearGradient>
<path id="Path_2" class="st0" d="M1531.3,769H4V0h573.6c79.8,0,199.8-21.4,297.6,0c247.2-19.2,495.4-86.5,536,0
	c28.2,111.2,69.2,235.1,5.8,282.2c56,162.4,33,42.4,45.4,167.7C1487.7,480.9,1500.5,755.2,1531.3,769z"/>
<linearGradient id="Path_3_1_" gradientUnits="userSpaceOnUse" x1="526.7812" y1="686.4587" x2="525.8012" y2="685.4186" gradientTransform="matrix(-547.93 0 0 -769 288548.7813 527906.5)">
	<stop  offset="0" style="stop-color:#FFFFFF;stop-opacity:0.6"/>
	<stop  offset="0.69" style="stop-color:#FFFFFF;stop-opacity:5.000000e-02"/>
	<stop  offset="1" style="stop-color:#FFFFFF;stop-opacity:0"/>
</linearGradient>
<path id="Path_3" class="st1" d="M139.9,181c-15.2,107.8-67,118.2-79.3,206c-17,121.2,58.8,265,123,264
	c47.6-0.7,26.4-130.6,130.9-228c76.8-71.6,195.9-104.3,226.1-70c5.2,5.9,7.5,13.5,7.9,22.2c-36.5-9-71.6-14.8-98.6,5.3
	c-50.8,37.7-68.9,135.1-45.2,224.1c-25.5,25.5-49.7,52.3-72.3,80.4c-31.6,39.3-47.5,65.3-60.1,84H5V0h109.1
	C146.9,45,147.3,128.2,139.9,181z"/>
<linearGradient id="Path_4_1_" gradientUnits="userSpaceOnUse" x1="525.5514" y1="684.6807" x2="525.0614" y2="683.2806" gradientTransform="matrix(-214.46 0 0 -112.27 113821.2578 77044.6406)">
	<stop  offset="0" style="stop-color:#A52EFF"/>
	<stop  offset="0.5" style="stop-color:#6747F8"/>
	<stop  offset="0.65" style="stop-color:#6049F7"/>
	<stop  offset="0.86" style="stop-color:#4C51F4"/>
	<stop  offset="1" style="stop-color:#3D58F3"/>
</linearGradient>
<path id="Path_4" class="st2" d="M1044.5,250.9c-3.1-22,44.2-65.2,90.1-80c13-4.2,88.4-28.4,114.1,36.4c5.5,14,16.1,47,5.8,60.6
	c-9.6,12.7-56.7,9.7-122.8-13.3C1062,230.2,1046.4,264.3,1044.5,250.9z"/>
<linearGradient id="Path_5_1_" gradientUnits="userSpaceOnUse" x1="526.948" y1="688.5829" x2="524.498" y2="681.043" gradientTransform="matrix(-568.73 0 0 -131.22 300306.125 90533.1484)">
	<stop  offset="0" style="stop-color:#A52EFF"/>
	<stop  offset="0.5" style="stop-color:#6747F8"/>
	<stop  offset="0.65" style="stop-color:#6049F7"/>
	<stop  offset="0.86" style="stop-color:#4C51F4"/>
	<stop  offset="1" style="stop-color:#3D58F3"/>
</linearGradient>
<path id="Path_5" class="st3" d="M1719.8,871.8c114.4-14.2,240.6,29.6,302.5,77.6v50.9h-568.7C1539.4,959.6,1600,886.7,1719.8,871.8
	z"/>
<linearGradient id="Path_6_1_" gradientUnits="userSpaceOnUse" x1="527.8879" y1="688.218" x2="525.4379" y2="681.278" gradientTransform="matrix(-523.73 0 0 -131.22 276636.125 90519.1094)">
	<stop  offset="0" style="stop-color:#A52EFF"/>
	<stop  offset="0.5" style="stop-color:#6747F8"/>
	<stop  offset="0.65" style="stop-color:#6049F7"/>
	<stop  offset="0.86" style="stop-color:#4C51F4"/>
	<stop  offset="1" style="stop-color:#3D58F3"/>
</linearGradient>
<path id="Path_6" class="st4" d="M1453.6,900v79.2H929.9c85.9-40.7,146.4-113.6,266.2-128.5C1287.2,839.4,1385.9,864.9,1453.6,900z"
	/>
<ellipse id="Ellipse_1" class="st5" cx="256.4" cy="86.5" rx="11.4" ry="11.5"/>
<ellipse id="Ellipse_2" class="st6" cx="609" cy="365" rx="3" ry="3"/>
<ellipse id="Ellipse_3" class="st5" cx="238" cy="412" rx="7.9" ry="8"/>
<ellipse id="Ellipse_4" class="st7" cx="596" cy="43.8" rx="5.1" ry="5.2"/>
<linearGradient id="Path_7_1_" gradientUnits="userSpaceOnUse" x1="522.6755" y1="685.6322" x2="523.6655" y2="685.6322" gradientTransform="matrix(-191.35 0 0 -281.86 101167.6953 193415.2969)">
	<stop  offset="0" style="stop-color:#FFFFFF;stop-opacity:0.6"/>
	<stop  offset="0.69" style="stop-color:#FFFFFF;stop-opacity:5.000000e-02"/>
	<stop  offset="1" style="stop-color:#FFFFFF;stop-opacity:0"/>
</linearGradient>
<path id="Path_7" class="st8" d="M976.3,239.4c-26.9-49.5-13.8-119.5,19.8-138c25.5-14,48.5,9.4,71.4-6c22-14.8,18.9-48.6,19.5-73.3
	c10.9,13.3,20.5,27.7,28.6,42.8c18.3,34.1,31,75.3,36,115.5c-9.4,9.2-17.1,20-22.6,32c-20.8,43.7-3.7,69.4-22.8,84
	C1078.7,317.5,1005.5,293.1,976.3,239.4z"/>
</svg>
