<?xml version="1.0" encoding="utf-8"?>
<!-- Generator: Adobe Illustrator 25.3.1, SVG Export Plug-In . SVG Version: 6.00 Build 0)  -->
<svg version="1.1" id="Capa_1" xmlns="http://www.w3.org/2000/svg" xmlns:xlink="http://www.w3.org/1999/xlink" x="0px" y="0px"
	 viewBox="0 0 180 223" style="enable-background:new 0 0 180 223;" xml:space="preserve">
<style type="text/css">
	.st0{fill:#554092;}
	.st1{fill:#2BB5B3;}
</style>
<g>
	<path class="st0" d="M108.3,171.4c-2.5-5.7-3.9-12.1-5-18.1c-1.8-10.2-2-18.4,3.1-27.7c3.5-6.4,8-12.3,10.5-19.1
		c2.5-6.8,2.9-14.4,5.5-21.1c2.3-5.9,7.5-11.9,14.2-12.3c6.5-0.4,3.9,2.9,2,7.5c-1.4,3.3-2.8,6.6-3.9,10c-2.4,7.5-4.3,15.2-4,23.1
		c0.1,2.7,1.4,6.1,4,5.8c0.8-0.1,1.4-0.5,2.1-0.9c14.8-9.8,17.3-30.1,11.9-45.8c-3.1-8.9-8.6-16-14-23.6c-1.5-2.2-1-3.1-0.3-4.3
		c1.5-2.6,11.6,7.8,12.8,9.1c4.4,4.8,7.9,10.3,10.3,16.3c6.9,16.9,4.7,37.5-3.6,53.5c-3.8,7.2-8,14.4-13.7,20.2
		c-0.8,0.8-1.5,1.5-2.1,2.4c-2.1,3.3-1.3,8.1-0.5,11.8c0.8,4.3,2.2,8.5,3.8,12.7c0.2,0.5-0.2,1.1-0.7,1.1H109
		C108.7,171.8,108.4,171.7,108.3,171.4z"/>
	<path class="st1" d="M128.7,44.5c-3.1-0.1-7.9-2.3-9.5-2.9c-6.2-2.1-12.6-4-19.1-4.3C78.7,36.2,53.7,48.2,45.8,69
		c-6,15.9-8.7,34.5-0.9,50.4c3.8,7.9,10,14.4,17.3,19.2c0.5,0.3,35,19.8,27.4,45.6c0,0.2-0.1,0.5-0.1,0.7l-2.3,15.7
		c-0.2,9.8-14.6,10.1-15.3,0.4c0-0.2,0-0.4,0-0.7c-0.1-0.6-3.5-20-10.8-26.4c-0.3-0.2-0.6-0.3-1-0.3c-3.2,0.2-18.7,1.4-21.3-0.4
		c0,0-7.7-1.9-7.1-9.5c0-0.3,0.1-0.6,0.3-0.8c0.6-0.7,2-2.6,2.5-5.3c0.1-0.3,0-0.6-0.1-0.9c-0.8-1.5-3.2-6.2-4-7.8
		c-0.2-0.3-0.2-0.7-0.1-1l0.2-0.6c0.2-0.7-0.2-1.5-0.9-1.7c-0.7-0.3-1.5-0.7-1.7-1.2c0,0,0-0.1,0-0.1c0-0.5-0.3-4.8-0.1-7.7
		c0-0.7-0.4-1.3-1.1-1.5c-3.9-0.7-15-3.7-6.6-15.8c0,0,0,0,0-0.1c0.5-0.5,9.1-9.8,9.3-21.2c0-0.1,0-0.3-0.1-0.4
		c-0.7-2.4-7.3-26.9,18.4-50c4.8-4.3,10.2-8,15.9-11c11.8-6.4,25.4-9.9,38.9-8.1c7,0.9,14,3,20.1,6.4c2.2,1.2,2.2,1.2,4.3,2.5
		c1,0.7,2.1,1.4,3.1,2.1c0.7,0.5,1.7,1.1,2.1,1.9c0.5,0.9-0.3,1.8-0.8,2.5C130.5,44.3,129.7,44.5,128.7,44.5z"/>
</g>
</svg>
